<?xml version="1.0" encoding="UTF-8" standalone="no"?>
<!-- Created with Inkscape (http://www.inkscape.org/) -->

<svg
   xmlns:dc="http://purl.org/dc/elements/1.1/"
   xmlns:cc="http://creativecommons.org/ns#"
   xmlns:rdf="http://www.w3.org/1999/02/22-rdf-syntax-ns#"
   xmlns:svg="http://www.w3.org/2000/svg"
   xmlns="http://www.w3.org/2000/svg"
   xmlns:sodipodi="http://sodipodi.sourceforge.net/DTD/sodipodi-0.dtd"
   xmlns:inkscape="http://www.inkscape.org/namespaces/inkscape"
   width="576"
   height="576"
   viewBox="0 0 152.4 152.4"
   version="1.1"
   id="svg8"
   inkscape:version="0.92.2 5c3e80d, 2017-08-06"
   sodipodi:docname="avatar.svg">
  <defs
     id="defs2">
    <inkscape:path-effect
       effect="perspective-envelope"
       up_left_point="10.233788,4.0625001"
       up_right_point="48.517513,4.0625001"
       down_left_point="4.0612504,41.3505"
       down_right_point="54.69005,41.3505"
       id="path-effect3797"
       is_visible="true"
       deform_type="perspective"
       horizontal_mirror="false"
       vertical_mirror="true"
       overflow_perspective="false" />
    <inkscape:path-effect
       effect="perspective-envelope"
       up_left_point="4.0625004,4.0625001"
       up_right_point="54.6888,4.0625001"
       down_left_point="8.5156253,41.35025"
       down_right_point="50.235675,41.35025"
       id="path-effect3795"
       is_visible="true"
       deform_type="perspective"
       horizontal_mirror="false"
       vertical_mirror="true"
       overflow_perspective="false" />
  </defs>
  <sodipodi:namedview
     id="base"
     pagecolor="#ffffff"
     bordercolor="#666666"
     borderopacity="1.0"
     inkscape:pageopacity="0.0"
     inkscape:pageshadow="2"
     inkscape:zoom="0.98994949"
     inkscape:cx="459.80905"
     inkscape:cy="210.61637"
     inkscape:document-units="mm"
     inkscape:current-layer="imagebot_2"
     showgrid="false"
     units="px"
     showguides="true"
     inkscape:guide-bbox="true"
     inkscape:snap-nodes="false"
     inkscape:snap-others="false"
     inkscape:snap-bbox="true"
     inkscape:bbox-paths="true"
     inkscape:bbox-nodes="true"
     inkscape:snap-bbox-edge-midpoints="true"
     inkscape:window-width="1920"
     inkscape:window-height="1053"
     inkscape:window-x="0"
     inkscape:window-y="27"
     inkscape:window-maximized="1">
    <sodipodi:guide
       position="0,12.7"
       orientation="0,1"
       id="guide30"
       inkscape:locked="false"
       inkscape:label=""
       inkscape:color="rgb(0,0,255)" />
    <inkscape:grid
       type="xygrid"
       id="grid32" />
    <sodipodi:guide
       position="0,139.7"
       orientation="0,1"
       id="guide3724"
       inkscape:locked="false"
       inkscape:label=""
       inkscape:color="rgb(0,0,255)" />
    <sodipodi:guide
       position="139.7,0"
       orientation="1,0"
       id="guide3726"
       inkscape:locked="false"
       inkscape:label=""
       inkscape:color="rgb(0,0,255)" />
    <sodipodi:guide
       position="12.7,0"
       orientation="1,0"
       id="guide3728"
       inkscape:locked="false"
       inkscape:label=""
       inkscape:color="rgb(0,0,255)" />
  </sodipodi:namedview>
  <metadata
     id="metadata5">
    <rdf:RDF>
      <cc:Work
         rdf:about="">
        <dc:format>image/svg+xml</dc:format>
        <dc:type
           rdf:resource="http://purl.org/dc/dcmitype/StillImage" />
        <dc:title></dc:title>
      </cc:Work>
    </rdf:RDF>
  </metadata>
  <g
     inkscape:label="Capa 1"
     inkscape:groupmode="layer"
     id="layer1"
     transform="translate(0,-144.59998)">
    <g
       id="imagebot_2"
       transform="matrix(1.8729571,0,0,1.8729571,23.221741,165.8821)">
      <title
         id="title8">imagebot_2</title>
      <g
         transform="matrix(0.63072905,0,0,0.6314334,10.928263,-6.1607067)"
         id="g3793"
         inkscape:path-effect="#path-effect3797"
         style="stroke:#4747ba;stroke-opacity:1">
        <path
           style="fill:#ffffff;fill-rule:evenodd;stroke:#4747ba;stroke-width:3.125;stroke-linecap:round;stroke-linejoin:round;stroke-opacity:1"
           inkscape:connector-curvature="0"
           d="m 12.264194,4.6879001 c -0.778888,0 -1.510088,0.6287487 -1.640926,1.4191351 0,0 -5.5381518,33.4557098 -5.5381518,33.4557098 -0.2197079,1.327245 0.4298749,2.413155 1.4599257,2.413155 0,0 46.9103161,0 46.9103161,0 1.030051,0 1.679334,-1.08591 1.459626,-2.413155 0,0 -5.538152,-33.4557098 -5.538152,-33.4557098 -0.130838,-0.7903864 -0.861811,-1.4191351 -1.6407,-1.4191351 0,0 -35.471938,0 -35.471938,0 z"
           id="path3783"
           transform="translate(-0.62439975,-0.6254)"
           inkscape:original-d="m 6.5462,4.6879001 c -1.03,0 -1.8593,0.827 -1.8593,1.854 V 40.1219 c 0,1.027 0.8293,1.854 1.8593,1.854 h 46.908 c 1.03,0 1.859,-0.827 1.859,-1.854 V 6.5419001 c 0,-1.027 -0.829,-1.854 -1.859,-1.854 z" />
        <path
           style="fill:none;stroke:#4747ba;stroke-width:5;stroke-linecap:round;stroke-linejoin:round;stroke-opacity:1"
           inkscape:connector-curvature="0"
           transform="translate(-0.62439975,-0.6254)"
           d="m 16.171085,11.068711 c 0,0 21.972599,0 21.972599,0"
           id="path3785"
           inkscape:original-d="M 12.669,12.685 H 40.206" />
        <path
           style="fill:none;stroke:#4747ba;stroke-width:3.125;stroke-linecap:round;stroke-linejoin:round;stroke-opacity:1"
           inkscape:connector-curvature="0"
           transform="translate(-0.62439975,-0.6254)"
           d="m 14.623208,17.767045 c 0,0 27.597096,0 27.597096,0"
           id="path3787"
           inkscape:original-d="M 11.732,20.227 H 44.518" />
        <path
           style="fill:none;stroke:#4747ba;stroke-width:3.125;stroke-linecap:round;stroke-linejoin:round;stroke-opacity:1"
           inkscape:connector-curvature="0"
           transform="translate(-0.62439975,-0.6254)"
           d="m 13.915965,23.687138 c 0,0 5.754614,0 5.754614,0"
           id="path3789"
           inkscape:original-d="m 11.732,26.268 h 6.536" />
        <path
           style="fill:none;stroke:#4747ba;stroke-width:3.125;stroke-linecap:round;stroke-linejoin:round;stroke-opacity:1"
           inkscape:connector-curvature="0"
           transform="translate(-0.62439975,-0.6254)"
           d="m 13.140526,30.178064 c 0,0 9.14683,0 9.14683,0"
           id="path3791"
           inkscape:original-d="m 11.732,32.309 h 9.911" />
      </g>
      <g
         id="g3735"
         transform="matrix(1.2614581,0,0,1.2628668,-8.7713615,9.0316864)"
         inkscape:path-effect="#path-effect3795"
         style="stroke:#4747ba;stroke-opacity:1">
        <path
           transform="translate(-0.62439975,-0.6254)"
           id="imagebot_7"
           d="m 6.5462001,4.6879001 c -1.03,0 -1.7400162,0.9988093 -1.5934409,2.2261414 0,0 4.003193,33.5202955 4.003193,33.5202955 0.1023643,0.857135 0.8674812,1.541313 1.7162818,1.541313 0,0 38.655879,0 38.655879,0 0.848801,0 1.613671,-0.684178 1.716035,-1.541313 0,0 4.003193,-33.5202955 4.003193,-33.5202955 C 55.193916,5.6867094 54.4842,4.6879001 53.4542,4.6879001 c 0,0 -46.9079999,0 -46.9079999,0 z"
           inkscape:connector-curvature="0"
           style="fill:#ffffff;fill-rule:evenodd;stroke:#4747ba;stroke-width:3.125;stroke-linecap:round;stroke-linejoin:round;stroke-opacity:1"
           inkscape:original-d="m 6.5462,4.6879001 c -1.03,0 -1.8593,0.827 -1.8593,1.854 V 40.1219 c 0,1.027 0.8293,1.854 1.8593,1.854 h 46.908 c 1.03,0 1.859,-0.827 1.859,-1.854 V 6.5419001 c 0,-1.027 -0.829,-1.854 -1.859,-1.854 z" />
        <path
           id="imagebot_6"
           d="m 13.427746,13.967281 c 0,0 26.331442,0 26.331442,0"
           transform="translate(-0.62439975,-0.6254)"
           inkscape:connector-curvature="0"
           style="fill:none;stroke:#4747ba;stroke-width:5;stroke-linecap:round;stroke-linejoin:round;stroke-opacity:1"
           inkscape:original-d="M 12.669,12.685 H 40.206" />
        <path
           id="imagebot_5"
           d="m 13.224403,22.003654 c 0,0 30.107557,0 30.107557,0"
           transform="translate(-0.62439975,-0.6254)"
           inkscape:connector-curvature="0"
           style="fill:none;stroke:#4747ba;stroke-width:3.125;stroke-linecap:round;stroke-linejoin:round;stroke-opacity:1"
           inkscape:original-d="M 11.732,20.227 H 44.518" />
        <path
           id="imagebot_4"
           d="m 13.740793,27.995117 c 0,0 5.817288,0 5.817288,0"
           transform="translate(-0.62439975,-0.6254)"
           inkscape:connector-curvature="0"
           style="fill:none;stroke:#4747ba;stroke-width:3.125;stroke-linecap:round;stroke-linejoin:round;stroke-opacity:1"
           inkscape:original-d="m 11.732,26.268 h 6.536" />
        <path
           id="imagebot_3"
           d="m 14.226341,33.628736 c 0,0 8.55774,0 8.55774,0"
           transform="translate(-0.62439975,-0.6254)"
           inkscape:connector-curvature="0"
           style="fill:none;stroke:#4747ba;stroke-width:3.125;stroke-linecap:round;stroke-linejoin:round;stroke-opacity:1"
           inkscape:original-d="m 11.732,32.309 h 9.911" />
      </g>
    </g>
  </g>
</svg>
